Name,Subtitle,Efficiency
Opel Ampera-e,Battery Electric Vehicle |       58 kWh ,173 Wh/km
Renault Kangoo Maxi ZE 33,Battery Electric Vehicle |       31 kWh ,194 Wh/km
Nissan Leaf,Battery Electric Vehicle |       36 kWh ,164 Wh/km
Porsche Taycan Turbo S,Battery Electric Vehicle |       83.7 kWh,215 Wh/km
Nissan e-NV200 Evalia,Battery Electric Vehicle |       36 kWh ,218 Wh/km
Volkswagen ID.3 Pure Performance,Battery Electric Vehicle |       45 kWh,164 Wh/km
BMW iX3,Battery Electric Vehicle |       74 kWh,192 Wh/km
Nissan Leaf e+,Battery Electric Vehicle |       56 kWh ,172 Wh/km
BMW i3 120 Ah,Battery Electric Vehicle |       37.9 kWh,161 Wh/km
Mercedes EQA 250,Battery Electric Vehicle |       66.5 kWh,187 Wh/km
DS 3 Crossback E-Tense,Battery Electric Vehicle |       45 kWh ,180 Wh/km
BMW i3s 120 Ah,Battery Electric Vehicle |       37.9 kWh,165 Wh/km
Sono Sion,Battery Electric Vehicle |       47 kWh ,181 Wh/km
Audi e-tron GT RS,Battery Electric Vehicle |       85 kWh,210 Wh/km
Renault Zoe ZE50 R110,Battery Electric Vehicle |       52 kWh,165 Wh/km
Hyundai IONIQ Electric,Battery Electric Vehicle |       38.3 kWh,153 Wh/km
Lightyear One,Battery Electric Vehicle |       60 kWh ,104 Wh/km
Tesla Roadster,Battery Electric Vehicle |       200 kWh ,206 Wh/km
Peugeot e-208,Battery Electric Vehicle |       45 kWh ,164 Wh/km
Honda e,Battery Electric Vehicle |       28.5 kWh ,168 Wh/km
CUPRA Born 110 kW - 55 kWh,Battery Electric Vehicle |       45 kWh,164 Wh/km
Audi Q4 e-tron 35,Battery Electric Vehicle |       51.5 kWh,184 Wh/km
Tesla Model Y Long Range Dual Motor,Battery Electric Vehicle |       76 kWh ,169 Wh/km
Tesla Model Y Performance,Battery Electric Vehicle |       76 kWh ,177 Wh/km
Porsche Taycan 4 Cross Turismo,Battery Electric Vehicle |       83.7 kWh,207 Wh/km
Skoda Enyaq iV 50,Battery Electric Vehicle |       52 kWh,176 Wh/km
Volkswagen e-Up!,Battery Electric Vehicle |       32.3 kWh,158 Wh/km
SEAT Mii Electric,Battery Electric Vehicle |       32.3 kWh,158 Wh/km
Opel Corsa-e,Battery Electric Vehicle |       45 kWh ,164 Wh/km
MG ZS EV,Battery Electric Vehicle |       42.5 kWh ,193 Wh/km
Volkswagen ID.3 Pro,Battery Electric Vehicle |       58 kWh,166 Wh/km
Volkswagen ID.3 Pro S,Battery Electric Vehicle |       77 kWh,171 Wh/km
Renault Zoe ZE50 R135,Battery Electric Vehicle |       52 kWh,168 Wh/km
Peugeot e-2008 SUV,Battery Electric Vehicle |       45 kWh ,180 Wh/km
Audi e-tron 50 quattro,Battery Electric Vehicle |       64.7 kWh,231 Wh/km
Porsche Taycan Turbo,Battery Electric Vehicle |       83.7 kWh,209 Wh/km
Smart EQ fortwo coupe,Battery Electric Vehicle |       16.7 kWh ,167 Wh/km
Smart EQ fortwo cabrio,Battery Electric Vehicle |       16.7 kWh ,176 Wh/km
Smart EQ forfour,Battery Electric Vehicle |       16.7 kWh ,176 Wh/km
Honda e Advance,Battery Electric Vehicle |       28.5 kWh ,168 Wh/km
Byton M-Byte 72 kWh 2WD,Battery Electric Vehicle |       72 kWh ,222 Wh/km
Byton M-Byte 95 kWh 4WD,Battery Electric Vehicle |       95 kWh ,244 Wh/km
Renault Zoe ZE40 R110,Battery Electric Vehicle |       41 kWh,161 Wh/km
Porsche Taycan 4S,Battery Electric Vehicle |       71 kWh,189 Wh/km
Porsche Taycan 4S Plus,Battery Electric Vehicle |       83.7 kWh,192 Wh/km
Mercedes EQV 300 Long,Battery Electric Vehicle |       90 kWh,281 Wh/km
Mazda MX-30,Battery Electric Vehicle |       30 kWh ,176 Wh/km
Ford Mustang Mach-E SR RWD,Battery Electric Vehicle |       68 kWh,197 Wh/km
Ford Mustang Mach-E ER RWD,Battery Electric Vehicle |       88 kWh,200 Wh/km
Ford Mustang Mach-E SR AWD,Battery Electric Vehicle |       68 kWh,206 Wh/km
Ford Mustang Mach-E ER AWD,Battery Electric Vehicle |       88 kWh,210 Wh/km
Ford Mustang Mach-E GT,Battery Electric Vehicle |       88 kWh,215 Wh/km
Audi e-tron Sportback 50 quattro,Battery Electric Vehicle |       64.7 kWh,219 Wh/km
Tesla Cybertruck Single Motor,Battery Electric Vehicle |       100 kWh ,256 Wh/km
Tesla Cybertruck Dual Motor,Battery Electric Vehicle |       120 kWh ,261 Wh/km
Tesla Cybertruck Tri Motor,Battery Electric Vehicle |       200 kWh ,267 Wh/km
Lexus UX 300e,Battery Electric Vehicle |       50 kWh ,192 Wh/km
BMW i4 eDrive40,Battery Electric Vehicle |       80.7 kWh,170 Wh/km
Aiways U5,Battery Electric Vehicle |       63 kWh ,188 Wh/km
Renault Twingo Electric,Battery Electric Vehicle |       21.3 kWh,164 Wh/km
Audi e-tron S 55 quattro,Battery Electric Vehicle |       86.5 kWh,270 Wh/km
Audi e-tron S Sportback 55 quattro,Battery Electric Vehicle |       86.5 kWh,258 Wh/km
Volkswagen ID.4 1st,Battery Electric Vehicle |       77 kWh,188 Wh/km
Byton M-Byte 95 kWh 2WD,Battery Electric Vehicle |       95 kWh ,238 Wh/km
Fiat 500e Cabrio,Battery Electric Vehicle |       37.3 kWh ,152 Wh/km
Opel Mokka-e,Battery Electric Vehicle |       45 kWh ,176 Wh/km
Skoda Enyaq iV 60,Battery Electric Vehicle |       58 kWh,176 Wh/km
Skoda Enyaq iV 80,Battery Electric Vehicle |       77 kWh,183 Wh/km
Skoda Enyaq iV 80X,Battery Electric Vehicle |       77 kWh,190 Wh/km
Skoda Enyaq iV RS,Battery Electric Vehicle |       77 kWh,195 Wh/km
Fiat 500e Hatchback 42 kWh,Battery Electric Vehicle |       37.3 kWh ,149 Wh/km
Citroen e-C4,Battery Electric Vehicle |       45 kWh ,180 Wh/km
Jaguar I-Pace EV400,Battery Electric Vehicle |       84.7 kWh,232 Wh/km
Kia e-Soul 64 kWh,Battery Electric Vehicle |       64 kWh,173 Wh/km
Kia e-Soul 39 kWh,Battery Electric Vehicle |       39.2 kWh,170 Wh/km
Audi Q4 Sportback e-tron 35,Battery Electric Vehicle |       51.5 kWh,175 Wh/km
Nissan Ariya 63kWh,Battery Electric Vehicle |       63 kWh,188 Wh/km
Nissan Ariya 87kWh,Battery Electric Vehicle |       87 kWh,196 Wh/km
Nissan Ariya e-4ORCE 63kWh,Battery Electric Vehicle |       63 kWh,194 Wh/km
Nissan Ariya e-4ORCE 87kWh,Battery Electric Vehicle |       87 kWh,207 Wh/km
Nissan Ariya e-4ORCE 87kWh Performance,Battery Electric Vehicle |       87 kWh,226 Wh/km
Volkswagen ID.3 Pro Performance,Battery Electric Vehicle |       58 kWh,166 Wh/km
MG MG5 EV,Battery Electric Vehicle |       48.8 kWh,165 Wh/km
Volkswagen ID.4 Pro Performance,Battery Electric Vehicle |       77 kWh,188 Wh/km
Mercedes EQV 300 Extra-Long,Battery Electric Vehicle |       90 kWh,281 Wh/km
Lucid Air Grand Touring,Battery Electric Vehicle |       110 kWh ,167 Wh/km
Lucid Air Touring,Battery Electric Vehicle |       85 kWh ,160 Wh/km
Lucid Air Pure,Battery Electric Vehicle |       85 kWh ,157 Wh/km
Dacia Spring Electric,Battery Electric Vehicle |       26.8 kWh ,158 Wh/km
Tesla Model 3 Standard Range Plus LFP,Battery Electric Vehicle |       51 kWh ,150 Wh/km
Tesla Model 3 Performance,Battery Electric Vehicle |       76 kWh ,162 Wh/km
Fiat 500e Hatchback 24 kWh,Battery Electric Vehicle |       23.8 kWh ,144 Wh/km
Fiat 500e 3+1,Battery Electric Vehicle |       37.3 kWh ,152 Wh/km
Mercedes EQC 400 4MATIC,Battery Electric Vehicle |       80 kWh,216 Wh/km
Kia e-Niro 64 kWh,Battery Electric Vehicle |       64 kWh,173 Wh/km
Kia e-Niro 39 kWh,Battery Electric Vehicle |       39.2 kWh,167 Wh/km
Citroen e-SpaceTourer XS 50 kWh,Battery Electric Vehicle |       45 kWh ,243 Wh/km
Citroen e-SpaceTourer M 50 kWh,Battery Electric Vehicle |       45 kWh ,243 Wh/km
Citroen e-SpaceTourer XL 50 kWh,Battery Electric Vehicle |       45 kWh ,250 Wh/km
Citroen e-SpaceTourer M 75 kWh,Battery Electric Vehicle |       68 kWh ,252 Wh/km
Citroen e-SpaceTourer XL 75 kWh,Battery Electric Vehicle |       68 kWh ,252 Wh/km
Opel Zafira-e Life S 50 kWh,Battery Electric Vehicle |       45 kWh ,243 Wh/km
Opel Zafira-e Life M 50 kWh,Battery Electric Vehicle |       45 kWh ,243 Wh/km
Opel Zafira-e Life L 50 kWh,Battery Electric Vehicle |       45 kWh ,250 Wh/km
Opel Zafira-e Life M 75 kWh,Battery Electric Vehicle |       68 kWh ,252 Wh/km
Opel Zafira-e Life L 75 kWh,Battery Electric Vehicle |       68 kWh ,252 Wh/km
Peugeot e-Traveller Compact 50 kWh,Battery Electric Vehicle |       45 kWh ,243 Wh/km
Peugeot e-Traveller Standard 50 kWh,Battery Electric Vehicle |       45 kWh ,243 Wh/km
Peugeot e-Traveller Long 50 kWh,Battery Electric Vehicle |       45 kWh ,243 Wh/km
Peugeot e-Traveller Standard 75 kWh,Battery Electric Vehicle |       68 kWh ,252 Wh/km
Peugeot e-Traveller Long 75 kWh,Battery Electric Vehicle |       68 kWh ,252 Wh/km
Audi e-tron 55 quattro,Battery Electric Vehicle |       86.5 kWh,237 Wh/km
Audi e-tron Sportback 55 quattro,Battery Electric Vehicle |       86.5 kWh,231 Wh/km
Seres 3,Battery Electric Vehicle |       52 kWh ,193 Wh/km
Hyundai IONIQ 5 Project 45,Battery Electric Vehicle |       72.6 kWh ,196 Wh/km
Porsche Taycan,Battery Electric Vehicle |       71 kWh,180 Wh/km
Porsche Taycan Plus,Battery Electric Vehicle |       83.7 kWh,182 Wh/km
Tesla Model S Long Range,Battery Electric Vehicle |       90 kWh ,162 Wh/km
Tesla Model S Plaid,Battery Electric Vehicle |       90 kWh ,168 Wh/km
Tesla Model X Long Range,Battery Electric Vehicle |       90 kWh ,189 Wh/km
Tesla Model X Plaid,Battery Electric Vehicle |       90 kWh ,198 Wh/km
Mini Cooper SE,Battery Electric Vehicle |       28.9 kWh,156 Wh/km
JAC iEV7s,Battery Electric Vehicle |       39 kWh,173 Wh/km
Volkswagen ID.4 Pure Performance,Battery Electric Vehicle |       52 kWh,182 Wh/km
Audi e-tron GT quattro,Battery Electric Vehicle |       85 kWh,202 Wh/km
Volvo C40 Recharge,Battery Electric Vehicle |       75 kWh,221 Wh/km
Hyundai Kona Electric 39 kWh,Battery Electric Vehicle |       39.2 kWh,157 Wh/km
Hyundai Kona Electric 64 kWh,Battery Electric Vehicle |       64 kWh,162 Wh/km
Porsche Taycan 4S Cross Turismo,Battery Electric Vehicle |       83.7 kWh,207 Wh/km
Porsche Taycan Turbo Cross Turismo,Battery Electric Vehicle |       83.7 kWh,217 Wh/km
Porsche Taycan Turbo S Cross Turismo,Battery Electric Vehicle |       83.7 kWh,220 Wh/km
Kia EV6 GT,Battery Electric Vehicle |       77.4 kWh ,196 Wh/km
BMW iX xDrive40,Battery Electric Vehicle |       71 kWh,203 Wh/km
BMW iX xDrive50,Battery Electric Vehicle |       105.2 kWh,208 Wh/km
MG MG5 Electric,Battery Electric Vehicle |       57 kWh ,168 Wh/km
MG Marvel R Performance,Battery Electric Vehicle |       65 kWh ,197 Wh/km
Hyundai IONIQ 5 Standard Range 2WD,Battery Electric Vehicle |       58 kWh ,187 Wh/km
Hyundai IONIQ 5 Standard Range AWD,Battery Electric Vehicle |       58 kWh ,190 Wh/km
Hyundai IONIQ 5 Long Range 2WD,Battery Electric Vehicle |       72.6 kWh ,189 Wh/km
Hyundai IONIQ 5 Long Range AWD,Battery Electric Vehicle |       72.6 kWh ,194 Wh/km
Kia EV6 Standard Range 2WD,Battery Electric Vehicle |       58 kWh ,181 Wh/km
Kia EV6 Long Range 2WD,Battery Electric Vehicle |       77.4 kWh ,184 Wh/km
Kia EV6 Long Range AWD,Battery Electric Vehicle |       77.4 kWh ,189 Wh/km
Mercedes EQS 450+,Battery Electric Vehicle |       107.8 kWh,168 Wh/km
Mercedes EQS 580 4MATIC,Battery Electric Vehicle |       107.8 kWh,177 Wh/km
Tesla Model 3 Standard Range Plus,Battery Electric Vehicle |       50 kWh ,147 Wh/km
Polestar 2 Standard Range Single Motor,Battery Electric Vehicle |       61 kWh ,174 Wh/km
Polestar 2 Long Range Single Motor,Battery Electric Vehicle |       75 kWh ,176 Wh/km
Polestar 2 Long Range Dual Motor,Battery Electric Vehicle |       75 kWh ,190 Wh/km
Volkswagen ID.4 Pure,Battery Electric Vehicle |       52 kWh,182 Wh/km
Audi Q4 e-tron 40,Battery Electric Vehicle |       76.6 kWh,189 Wh/km
Audi Q4 e-tron 50 quattro,Battery Electric Vehicle |       76.6 kWh,199 Wh/km
Audi Q4 Sportback e-tron 50 quattro,Battery Electric Vehicle |       76.6 kWh,192 Wh/km
Mercedes EQB 350 4MATIC,Battery Electric Vehicle |       66.5 kWh,196 Wh/km
Volkswagen ID.4 GTX,Battery Electric Vehicle |       77 kWh,193 Wh/km
Mercedes EQA 300 4MATIC,Battery Electric Vehicle |       66.5 kWh,190 Wh/km
Mercedes EQA 350 4MATIC,Battery Electric Vehicle |       66.5 kWh,190 Wh/km
Toyota PROACE Verso M 50 kWh,Battery Electric Vehicle |       45 kWh ,243 Wh/km
Toyota PROACE Verso L 50 kWh,Battery Electric Vehicle |       45 kWh ,250 Wh/km
Toyota PROACE Verso M 75 kWh,Battery Electric Vehicle |       68 kWh ,252 Wh/km
Toyota PROACE Verso L 75 kWh,Battery Electric Vehicle |       68 kWh ,252 Wh/km
CUPRA Born 150 kW - 62 kWh,Battery Electric Vehicle |       58 kWh,166 Wh/km
CUPRA Born 170 kW - 62 kWh,Battery Electric Vehicle |       58 kWh,168 Wh/km
CUPRA Born 170 kW - 82 kWh,Battery Electric Vehicle |       77 kWh,171 Wh/km
BMW i4 M50,Battery Electric Vehicle |       80.7 kWh,179 Wh/km
Volvo XC40 Recharge Twin Pure Electric,Battery Electric Vehicle |       75 kWh,221 Wh/km
Renault Megane E-Tech Electric,Battery Electric Vehicle |       60 kWh ,179 Wh/km
Peugeot e-Rifter Standard 50 kWh,Battery Electric Vehicle |       45 kWh ,225 Wh/km
Peugeot e-Rifter Long 50 kWh,Battery Electric Vehicle |       45 kWh ,231 Wh/km
MG Marvel R,Battery Electric Vehicle |       65 kWh ,191 Wh/km
Tesla Model 3 Long Range Dual Motor,Battery Electric Vehicle |       76 kWh ,155 Wh/km
MG MG5 EV Long Range,Battery Electric Vehicle |       57 kWh ,168 Wh/km
Audi Q4 e-tron 45 quattro,Battery Electric Vehicle |       76.6 kWh,199 Wh/km
Audi Q4 Sportback e-tron 40,Battery Electric Vehicle |       76.6 kWh,180 Wh/km
